﻿[
  {
    "outputFile": "wwwroot/css/shared/menu.css",
    "inputFile": "wwwroot/css/shared/menu.less"
  },
  {
    "outputFile": "wwwroot/css/shared/forms.css",
    "inputFile": "wwwroot/css/shared/forms.less"
  },
  {
    "outputFile": "wwwroot/css/shared/shared.css",
    "inputFile": "wwwroot/css/shared/shared.less"
  },
  {
    "outputFile": "wwwroot/css/shared/pager.css",
    "inputFile": "wwwroot/css/shared/pager.less"
  },
  {
    "outputFile": "wwwroot/css/account/external-logins.css",
    "inputFile": "wwwroot/css/account/external-logins.less"
  },
  {
    "outputFile": "wwwroot/css/admin/roles.css",
    "inputFile": "wwwroot/css/admin/roles.less"
  },
  {
    "outputFile": "wwwroot/css/home/slideshow.css",
    "inputFile": "wwwroot/css/home/slideshow.less"
  },
  {
    "outputFile": "wwwroot/css/admin/users.css",
    "inputFile": "wwwroot/css/admin/users.less"
  }
]